{"zhuyejiekou": [
{"name":"独播社","url":"http://35ys.cc/api.php/v1.vod"},
{"name":"爱西西","url":"https://myaixixi.com/xgapp.php/v1/"},
{"name":"HG影视","url":"http://hgyx.vip/api.php/v1.vod"},
{"name":"段友影视","url":"http://121.204.249.135:4433/ruifenglb_api.php/v1.vod"},
{"name":"飓风影视","url": "http://jf.35ys.cc/lehailb_api.php/v1.vod"},
{"name":"天空","url":"https://www.tkys.tv/xgapp.php/v2/"},
{"name":"三日影院","url":"https://www.3ri.net/api.php/v1.vod"},
{"name":"双鹿影院","url":"http://cr.slidc.top/mubai_api.php/m2.vod"},
{"name":"任性看","url":"https://renxingkan.net/api.php/v1.vod"},
{"name":"免费影视","url":"http://111.229.120.180:88/lvdou_api.php/v1.vod"},
{"name":"火星人","url":"https://www.huoxing9.com/mogai_api.php/v1.vod"},
{"name":"292看","url":"https://www.hzlff.cn/api.php/v1.vod"},
{"name":"vipt","url":"http://app.tvip.cc/api.php/v1.vod"},
{"name":"大猫影视","url":"http://app.ishen520.com/api.php/v1.vod"},
{"name":"益达影院","url":"http://luobu.yss6080.com/mogai_api.php/v1.vod"},
{"name":"迪迪","url":"http://dd88.icu:6080/xgapp.php/v2/"},
{"name":"看看影视","url": "http://kk.ccboke.top/ruifenglb_api.php/v1.vod"},
{"name":"MyTheme","url":"http://www.ysdr.vip/api.php/v1.vod"},
{"name":"苹果CMS","url":"http://app.tvip.cc/api.php/v1.vod"},
{"name":"渔渔影视","url":"http://luobo.yugenye.site/api.php/v1.vod"},
{"name":"奈非迷","url":"https://app.netflixmi.com/api.php/v1.vod"},
{"name":"tvip","url":"http://app.tvip.cc/api.php/v1.vod"},
{"name":"源来影视","url":"http://ld.ylaiys.com/lvdou_api.php/v1.vod"}, 
{"name":"寻常影视","url":"http://tv.91ymz.cn/api.php/v1.vod"}, 
{"name":"粉象视界","url":"http://42.157.129.15:34444/lvdou_api.php/v1.vod"},
{"name":"麻子视频","url":"http://aliyun.k8aa.com/mogai_api.php/v1.vod"},
{"name":"天天","url":"http://app.qianju.cc/api.php/v1.vod"},
{"name":"我爱跟剧","url":"https://www.genmov.com/mogai_api.php/v1.vod"},
{"name":"UU美剧","url":"https://www.uumjw.com/api.php/v1.vod"},
{"name":"蓝风影视","url":"http://www.ruchuplus.cn/api.php/v1.vod"},
{"name":"秒看电影","url":"https://www.5skan.com/mogai_api.php/v1.vod"},
{"name":"筋斗云影视","url":"https://tv.jindcloud.com/api.php/v1.vod"},
{"name":"懒猫影视","url":"https://lanmao.lanmaoymw.cn/api.php/v1.vod"},
{"name":"F7高清","url":"http://bc.haokanju1.cc/lvdou_api.php/v1.vod"},
{"name":"饭团","url":"http://television.wkfile.com/api.php/app/"},
{"name":"益达","url":"http://luobu.yss6080.com/mogai_api.php/v1.vod"},
{"name":"追剧吧","url":"http://zhuiju8.vip/api.php/v1.vod"},
{"name":"快云影音","url":"https://www.kuaiyunyy.com/api.php/app/"},
{"name":"4K","url":"http://1api.4kdytv.com/api.php/v1.vod"},
{"name":"DC","url":"http://chaorenbb.com/api.php/v1.vod"},
{"name":"看365","url":"https://www.kan365.xyz/api.php/app/"},
{"name":"初心","url":"https://www.18mv.club/api.php/v1.vod"},
{"name":"月色","url":"http://69ty.cc/mogai_api.php/v1.vod"},
{"name":"阿里","url":"http://aliys.cn:90/api.php/v1.vod"},
{"name":"美剧虫","url":"https://meijuchong.com/api.php/v1.vod"},
{"name":"月儿","url":"https://yue52.xyz/api.php/v1.vod"},
{"name":"樱花动漫","url":"https://www.dmwu.cc/api.php/v1.vod"},
{"name":"小白动漫","url":"http://121.62.60.222:20222/mogai_api.php/v1.vod"},
{"name":"QC","url":"https://www.qcsvip.com/mogai_api.php/v1.vod"},
{"name":"U5","url":"https://appx.uy07.com/api.php/v1.vod"},
{"name":"爱","url":"https://www.hzlff.cn/api.php/v1.vod"},
{"name":"多啦咪PRO","url":"http://yuenos-pro.miyuen.cn/qingdoujiekou.php/v1.vod"},
{"name":"黄河","url":"http://i.ledu8.cn/api.php/v1.vod"},
{"name":"极酷视频","url":"https://jiku.vip/mogai_api.php/v1.vod"},
{"name":"冷视TV","url":"https://len.tv/api.php/v1.vod"},
{"name":"橘子","url":"http://jz.juzidy.vip/mogai_api.php/v1.vod"},
{"name":"看剧吧","url":"http://app.ishen520.com/api.php/v1.vod"},
{"name":"看看剧","url":"https://www.kankanju.cn/api.php/v1.vod"},
{"name":"绿豆视频","url":"https://v.lvdoui.cn/mogai_api.php/v1.vod"},
{"name":"蓝光视频","url":"http://vip.91iqiyi.com/mogai_api.php/v1.vod"},
{"name":"皮皮动漫","url":"http://dm.muying.me/mogai_api.php/v1.vod"},
{"name":"天天视频","url":"http://app.qianju.cc/api.php/v1.vod"},
{"name":"猪猪","url":"http://app.2zdyy.com/api.php/v1.vod"},
{"name":"913e","url":"http://www.913e.net/xgapp.php/v1/"},
{"name":"海胆","url":"http://xf123.cc/api.php/app/"},
{"name":"抹茶猪","url":"https://www.mczdyw.com/api.php/app/"},
{"name":"可米影视","url": "http://www.kmysw.cn/ruifenglb_api.php/v1.vod"},
{"name":"暖光","url":"https://app.bl210.com/api.php/v1.vod"}],
"caijizhan": [
{"name":"江北","url":"https://gfzycj.hnmj.vip/api.php"},
{"name":"无尽","url":"https://api.wujinapi.com/api.php"},
{"name":"麒麟","url":"http://www.qilinzyz.com/api.php"},
{"name":"光速","url":"https://api.guangsuapi.com/api.php"},
{"name":"速更","url":"https://www.sugengzy.cn/api.php"},
{"name":"想看","url":"https://m3u8.xiangkanapi.com/api.php"},
{"name":"樱花","url":"https://m3u8.apiyhzy.com/api.php"},
{"name":"闪电","url":"https://sdzyapi.com/api.php"},
{"name":"U酷","url":"https://api.ukuapi.com/api.php"},
{"name":"天空","url":"https://m3u8.tiankongapi.com/api.php"},
{"name":"番茄","url":"http://api.fqzy.cc/api.php"},
{"name":"红牛","url":"https://www.hongniuzy2.com/api.php"},
{"name":"鱼乐","url":"https://api.yulecj.com/api.php"},
{"name":"神速","url":"https://api.sszyapi.com/api.php"},
{"name":"新浪","url":"https://api.xinlangapi.com/xinlangapi.php"},
{"name":"速播云","url":"http://gcku.suboyun.vip/api.php"},
{"name":"百度云","url":"https://api.apibdzy.com/api.php"},
{"name":"剧好看资源","url":"https://www.juhaokan.cc/api.php"},
{"name":"推荐采集1","url":"http://www.zycaiji.net:7788/api.php"},
{"name":"推荐采集2","url":"http://101.34.7.151:600/api.php"},
{"name":"韦青资源","url":"https://lehootv.com/api.php"},
{"name":"百度资源","url":"https://api.apibdzy.com/api.php"},
{"name":"飞速资源","url":"https://m3u8.feisuzyapi.com"},
{"name":"无尽资源","url":"https://api.wujinapi.com/api.php"},
{"name":"乐活资源","url":"https://lehootv.com/api.php"},
{"name":"番茄资源","url":"http://api.fqzy.cc/api.php"},
{"name":"灵芝资源","url":"https://app.linzhiyuan.xyz/api.php"},
{"name":"飞鱼资源","url":"https://app.feiyu5.com/api.php"},
{"name":"清欢资源","url":"http://free.qinghuanzy.com/api.php"},
{"name":"蓝光影视资源","url":"http://www.zzrhgg.com/api.php"},
{"name":"播放吧资源","url":"https://www.bofangya.com/api.php"},
{"name":"剧好看资源","url":"https://www.juhaokan.cc/api.php"},
{"name":"五一资源","url":"http://dy.51isu.com:11801/api.php"},
{"name":"喵派对","url":"https://zy.miao.party/api.php"}],
"lunbo":[
{"name": "斗鱼一起看","fanye": "aHR0cHM6Ly93d3cuZG91eXUuY29tL2dhcGkvcmtjL2RpcmVjdG9yeS9taXhMaXN0LzJfMjA4Lw==","qianzhui": "aHR0cDovL2VwZy4xMTIxMTQueHl6L2RvdXl1Lw=="},{"name": "虎牙一起看","fanye": "aHR0cHM6Ly93d3cuaHV5YS5jb20vY2FjaGUucGhwP209TGl2ZUxpc3QmZG89Z2V0TGl2ZUxpc3RCeVBhZ2UmZ2FtZUlkPTIxMzUmdGFnQWxsPTAmY2FsbGJhY2s9Z2V0TGl2ZUxpc3RKc29ucENhbGxiYWNrJnBhZ2U9","qianzhui": "aHR0cHM6Ly9lcGcuMTEyMTE0Lnh5ei9odXlhLw=="},{"name": "B站一起看","fanye": "aHR0cHM6Ly9hcGkubGl2ZS5iaWxpYmlsaS5jb20veGxpdmUvd2ViLWludGVyZmFjZS92MS9zZWNvbmQvZ2V0TGlzdD9wbGF0Zm9ybT13ZWImcGFyZW50X2FyZWFfaWQ9MTAmYXJlYV9pZD0zMyZzb3J0X3R5cGU9b25saW5lJnBhZ2U9","qianzhui": "aHR0cHM6Ly9lcGcuMTEyMTE0Lnh5ei9iaWxpLw=="},{"name": "B站舞见","fanye": "aHR0cHM6Ly9hcGkubGl2ZS5iaWxpYmlsaS5jb20veGxpdmUvd2ViLWludGVyZmFjZS92MS9zZWNvbmQvZ2V0TGlzdD9wbGF0Zm9ybT13ZWImcGFyZW50X2FyZWFfaWQ9MSZhcmVhX2lkPTIwNyZzb3J0X3R5cGU9b25saW5lJnBhZ2U9","qianzhui": "aHR0cHM6Ly9lcGcuMTEyMTE0Lnh5ei9iaWxpLw=="},{"name": "虎牙星秀","fanye": "aHR0cHM6Ly93d3cuaHV5YS5jb20vY2FjaGUucGhwP209TGl2ZUxpc3QmZG89Z2V0TGl2ZUxpc3RCeVBhZ2UmZ2FtZUlkPTE2NjMmdGFnQWxsPTAmY2FsbGJhY2s9Z2V0TGl2ZUxpc3RKc29ucENhbGxiYWNrJnBhZ2U9","qianzhui": "aHR0cHM6Ly9lcGcuMTEyMTE0Lnh5ei9odXlhLw=="},{"name": "斗鱼舞蹈区","fanye": "aHR0cHM6Ly93d3cuZG91eXUuY29tL2dhcGkvcmtjL2RpcmVjdG9yeS9taXhMaXN0LzJfMTAwOC8=","qianzhui": "aHR0cHM6Ly9tLmRvdXl1LmNvbS8="},{"name": "斗鱼颜值区","fanye": "aHR0cHM6Ly93d3cuZG91eXUuY29tL2dhcGkvcmtjL2RpcmVjdG9yeS9taXhMaXN0LzJfMzExLw==","qianzhui": "aHR0cHM6Ly9tLmRvdXl1LmNvbS8="},{"name": "B站放松","fanye": "aHR0cHM6Ly9hcGkubGl2ZS5iaWxpYmlsaS5jb20veGxpdmUvd2ViLWludGVyZmFjZS92MS9zZWNvbmQvZ2V0TGlzdD9wbGF0Zm9ybT13ZWImcGFyZW50X2FyZWFfaWQ9NSZhcmVhX2lkPTMzOSZzb3J0X3R5cGU9b25saW5lJnBhZ2U9","qianzhui": "aHR0cHM6Ly9lcGcuMTEyMTE0Lnh5ei9iaWxpLw=="},{"name": "虎牙二次元","fanye": "aHR0cHM6Ly93d3cuaHV5YS5jb20vY2FjaGUucGhwP209TGl2ZUxpc3QmZG89Z2V0TGl2ZUxpc3RCeVBhZ2UmZ2FtZUlkPTI2MzMmdGFnQWxsPTAmY2FsbGJhY2s9Z2V0TGl2ZUxpc3RKc29ucENhbGxiYWNrJnBhZ2U9","qianzhui": "aHR0cHM6Ly9lcGcuMTEyMTE0Lnh5ei9odXlhLw=="},{"name": "斗鱼二次元","fanye": "aHR0cHM6Ly93d3cuZG91eXUuY29tL2dhcGkvcmtjL2RpcmVjdG9yeS9taXhMaXN0LzJfMTc0Lw==","qianzhui": "aHR0cHM6Ly9tLmRvdXl1LmNvbS8="},
{"name":"yy","fanye": "aHR0cHM6Ly93d3cueXkuY29tL21vcmUvcGFnZS5hY3Rpb24/Yml6PXNpbmcmc3ViQml6PWlkeCZwYWdlPQ==","qianzhui": "aHR0cHM6Ly93d3cueXkuY29t"}],
"zhujiexi": "https://json.5lp.net/json.php?url=#http://api.vip123kan.vip/?url=#http://svip.nicefamily.club/home/api?type=ys&uid=769560&key=chijkrtBEGNPRWXZ35&url=#http://47.100.138.210:91/home/api?type=ys&uid=7593435&key=ehortuyAHMNQTWX457&url=#https://jx.300ys.xyz/json/jianghu.php/?url=",
"beiyongjiexi": "http://api.diliktv.xyz/vip/jx.php?url=#https://nbjx.vip/?url=#https://jx.blbo.cc:4433/?url=",
"dianshizhibo": "https://github.com/hd9211/maotv/blob/main/cyys.txt",
"tiyuzhibo": "https://m.zhibo8.net",
"wuqu": "aHR0cDovL3d3dy5kanV1LmNvbQ==",
"Home": {
"dy": {
"class": "全部$&class=#喜剧$&class=喜剧#爱情$&class=爱情#动作$&class=动作#枪战$&class=枪战#犯罪$&class=犯罪#惊悚$&class=惊悚#恐怖$&class=恐怖#悬疑$&class=悬疑#动画$&class=动画#家庭$&class=家庭#奇幻$&class=奇幻#魔幻$&class=魔幻#科幻$&class=科幻#战争$&class=战争#青春$&class=青春#剧情$&class=剧情#西部$&class=西部#纪录$&class=记录#音乐$&class=音乐#歌舞$&class=歌舞#运动$&class=运动#历史$&class=历史#武侠$&class=武侠#冒险$&class=冒险#传记$&class=传记",
"area": "全部$&area=#内地$&area=内地#香港$&area=香港#美国$&area=美国#欧洲$&area=欧洲#韩国$&area=韩国#日本$&area=日本#泰国$&area=泰国#印度$&area=印度#其它$&area=其它",
"year": "全部$&lang=&year=#2022$&lang=&year=2022#2021$&lang=&year=2021#2020$&lang=&year=2020#2019$&lang=&year=2019#2018$&lang=&year=2018#2017$&lang=&year=2017#2016-2011$&lang=&year=2016#2010-2000$&lang=&year=2010#90年代$&lang=&year=90#80年代$&lang=&year=80#更早$&lang=&year=70"
},
"dsj": {
"class": "全部$&class=#古装$&class=古装#言情$&class=言情#武侠$&class=武侠#偶像$&class=偶像#家庭$&class=家庭#青春$&class=青春#都市$&class=都市#喜剧$&class=喜剧#战争$&class=战争#军旅$&class=军旅#谍战$&class=谍战#悬疑$&class=悬疑#罪案$&class=罪案#穿越$&class=穿越#宫廷$&class=宫廷#历史$&class=历史#神话$&class=神话#科幻$&class=科幻#年代$&class=年代#农村$&class=农村#商战$&class=商战#剧情$&class=剧情#奇幻$&class=奇幻",
"area": "全部$&area=#内地$&area=内地#香港$&area=香港#美国$&area=美国#英国$&area=英国#韩国$&area=韩国#日本$&area=日本#泰国$&area=泰国#台湾$&area=台湾#其它$&area=其它",
"year": "全部$&lang=&year=#2022$&lang=&year=2022#2021$&lang=&year=2021#2020$&lang=&year=2020#2019$&lang=&year=2019#2018$&lang=&year=2018#2017$&lang=&year=2017#2016-2011$&lang=&year=2016#2010-2000$&lang=&year=2010#90年代$&lang=&year=90#80年代$&lang=&year=80#更早$&lang=&year=70"
},
"zy": {
"class": "全部$&class=#表演$&class=表演#播报$&class=播报#访谈$&class=访谈#体验$&class=体验#养成$&class=养成#游戏$&class=游戏#亲子$&class=亲子#美食$&class=美食#情感$&class=情感#选秀$&class=选秀#益智$&class=益智#晚会$&class=晚会#音乐$&class=音乐#文化$&class=文化#喜剧$&class=喜剧#曲艺$&class=曲艺#职场$&class=职场#脱口秀$&class=脱口秀#真人秀$&class=真人秀#竞技$&class=竞技#体育$&class=体育#萌宠$&class=萌宠",
"area": "全部$&area=#内地$&area=内地#香港$&area=香港#美国$&area=美国#韩国$&area=韩国#日本$&area=日本#台湾$&area=台湾",
"year": "全部$&lang=&year=#2022$&lang=&year=2022#2021$&lang=&year=2021#2020$&lang=&year=2020#2019$&lang=&year=2019#2018$&lang=&year=2018#2017$&lang=&year=2017#2016-2011$&lang=&year=2016#2010-2000$&lang=&year=2010#90年代$&lang=&year=90#80年代$&lang=&year=80#更早$&lang=&year=70"
},
"dm": {
"class": "全部$&class=#搞笑$&class=搞笑#番剧$&class=番剧#国创$&class=国创#大电影$&class=大电影#热血$&class=热血#催泪$&class=催泪#治愈$&class=治愈#励志$&class=励志#机战$&class=机战#战斗$&class=战斗#恋爱$&class=恋爱#科幻$&class=科幻#奇幻$&class=奇幻#魔幻$&class=魔幻#推理$&class=推理#校园$&class=校园#日常$&class=日常#经典$&class=经典#历史$&class=历史#美食$&class=美食#职场$&class=职场#偶像$&class=偶像#泡面$&class=泡面#冒险$&class=冒险#竞技$&class=竞技#武侠$&class=武侠#玄幻$&class=玄幻",
"area": "全部$&area=#内地$&area=内地#日本$&area=日本#欧美$&area=欧美#其它$&area=其它",
"year": "全部$&lang=&year=#2022$&lang=&year=2022#2021$&lang=&year=2021#2020$&lang=&year=2020#2019$&lang=&year=2019#2018$&lang=&year=2018#2017$&lang=&year=2017#2016-2011$&lang=&year=2016#2010-2000$&lang=&year=2010#90年代$&lang=&year=90#80年代$&lang=&year=80#更早$&lang=&year=70"
}
},
"zidingyi": {"name": "乐猪影视",
"url": "http://www.lezhutv.com",
"tihuan": "cnzz.com",
"User": "空",
"fenlei": "电视剧$/type/2-#电影$/type/1-#综艺$/type/3-#动漫$/type/4-#韩剧$/type/14-#美剧$/type/15-",
"houzhui": ".html",
"shifouercijiequ": "0",
"jiequqian": "空",
"jiequhou": "空",
"jiequshuzuqian": "class=\"vbox\"",
"jiequshuzuhou": "</a>",
"tupianqian": "data-original=\"",
"tupianhou": "\"",
"biaotiqian": "title=\"",
"biaotihou": "\"",
"lianjieqian": "href=\"",
"lianjiehou": "\"",
"sousuoqian": "/search-pg-1-wd-",
"sousuohou": ".html",
"sousuohouzhui": "/detail/",
"ssmoshi": "1",
"sousuoshifouercijiequ": "0",
"jspic": "空",
"jsname": "空",
"jsid": "空",
"ssjiequqian": "空",
"ssjiequhou": "空",
"ssjiequshuzuqian": "class=\"vbox\"",
"ssjiequshuzuhou": "</a>",
"sstupianqian": "data-original=\"",
"sstupianhou": "\"",
"ssbiaotiqian": "title=\"",
"ssbiaotihou": "\"",
"sslianjieqian": "href=\"",
"sslianjiehou": "\"",
"bfshifouercijiequ": "0",
"bfjiequqian": "空",
"bfjiequhou": "空",
"bfjiequshuzuqian": "class=\"list_block show\"",
"bfjiequshuzuhou": "</ul>",
"zhuangtaiqian": "class=\"yac\">",
"zhuangtaihou": "</p>",
"daoyanqian": "导演：</span>",
"daoyanhou": "</p>",
"zhuyanqian": "主演：</span>",
"zhuyanhou": "</p>",
"juqingqian": "class=\"tbox_js\">",
"juqinghou": "</div>",
"bfyshifouercijiequ": "0",
"bfyjiequqian": "空",
"bfyjiequhou": "空",
"bfyjiequshuzuqian": "<li>",
"bfyjiequshuzuhou": "</li>",
"bfbiaotiqian": "\">",
"bfbiaotihou": "</a>",
"bflianjieqian": "href=\"",
"bflianjiehou": "\""}}
