{

"sites":[
{"key":"mtv_pc_wt问题","name":"QQ群┃问题反馈","type":3,"api":"csp_Bili","searchable":0,"quickSearch":0,"filterable":1,"ext":"https://gitlab.com/gwcctv/mao/-/raw/main/%E9%97%AE%E9%A2%98%E5%8F%8D%E9%A6%88.txt"}, 
{"key":"mtv_pc_酷云七七","name":"👹┃酷云七七","type":3,"api":"csp_Kunyu77","searchable":1,"quickSearch":1,"filterable":1},
{"key":"360_spider","name":"💘360影视","api":"csp_SP360","type":3,"filterable":1,"quickSearch":1,"searchable":1,"ext":""},
{"key":"小苹果","name":"🍎小苹果","type":3,"api":"csp_LiteApple","searchable":1,"quickSearch":1,"filterable":1},
{"key":"csp_CZSPP","name":"🏭厂长资源","type":3,"api":"csp_Czsapp","searchable":1,"quickSearch":1,"filterable":0},
{"key":"csp_dd5555","name": "5️⃣️555影视（SP）","api":"csp_Dy555","type":3,"filterable":1,"quickSearch": 1,"searchable":1},
{"key":"csp_剧荒","name":"👿剧荒","type": 3,"api": "csp_Juhuang","searchable": 1,"quickSearch": 1,"filterable": 1},
{"key":"Lezhu_spider","name":"🦉乐猪影视","api": "csp_Lezhu","type": 3,"filterable": 1,"quickSearch": 1,"searchable": 1,"ext": ""}, 
{"key":"KanSJ_spider","name":"🦅看视界","api":"csp_KanSJ","type":3,"filterable":1,"quickSearch":1,"searchable":1,"ext":""},
{"key":"追剧喵","name":"🐯追剧喵","type":3,"api":"csp_ZJMiao","searchable":1,"quickSearch":1,"filterable":1},
{"key":"csp_DiDuan","name":"📺低端影视","type":3,"api":"csp_Ddrk","searchable":1,"quickSearch":1,"filterable":1},
{"key":"csp_Wmkk","name":"💯完美看看","api":"csp_Wmkk","type":3,"searchable": 1,"quickSearch": 1,"filterable": 1}
],

//解析接口

"parses":[
{"name":"聚合","type":3,"url":"Demo"},
{"name":"并发","type":2,"url":"Parallel"},
{"name":"轮询","type":2,"url":"Sequence"},
{"name":"线路1","type":1,"url":"https://www.ckmov.com/?url="},
{"name":"线路2","type":1,"url":"https://jx.xmflv.com/?url="}, 
{"name":"线路3","type":1,"url":"https://z1.m1907.cn/?jx="}, 	
{"name":"线路4","type":0,"url":"https://okjx.cc/?url="},
{"name":"线路5","type":1,"url":"https://jx.bynote.top/API.php?url="},
{"name":"线路6","type":1,"url":"http://211.99.99.236:4567/jhjson/ceshi.php?url="},
{"name":"线路7","type":0,"url":"https://ckmov.ccyjjd.com/ckmov/?url="},
{"name":"线路8","type":0,"url":"https://jx.parwix.com:4433/player/analysis.php?v="},
{"name":"线路9","type":0,"url":"https://www.yemu.xyz/?url="},
{"name":"线路10","type":0,"url":"https://www.nxflv.com/?url="},
{"name":"线路11","type":0,"url":"https://jx.bozrc.com:4433/player/?url="},
{"name":"线路12","type":0,"url":"http://1.117.152.239:39000/?url="},
{"name":"线路13","type":1,"url":"http://newjiexi.gotka.top/keyu3.php?url=","ext":{"header":{"User-Agent":"okhttp/4.1.0"}}},
{"name":"线路14","type":1,"url":"http://json.youguo520.top/fufeng/?url=","ext":{"header":{"User-Agent":"Dart/2.14 (dart:io)"}}},
{"name":"解析1","type":1,"url":"http://27.124.4.42:4567/jhjson/ceshi.php?url="},
{"name":"解析2","type":1,"url":"https://jx.hfyrw.com/mao.go?url="},
{"name":"解析3","type":1,"url":"https://json.5lp.net/json.php?url="},
{"name":"解析4","type":1,"url":"https://api.m3u8.tv:5678/home/api?type=ys&uid=1931000&key=gktuvyzABEORSYZ135&url="},
{"name":"解析5","type":1,"url":"https://vip.nxflv.com/home/api?uid=701203&key=bltuyCEFKLTX013679&url="},
{"name":"解析6","type":1,"url":"http://81.71.48.249:4456/jsonc/293shipin.php?url="},
{"name":"解析7","type":1,"url":"https://jx.parwix.com:4433/player/?url="},
{"name":"解析8","type":1,"url":"https://jx.300ys.xyz/json/jianghu.php/?url="}
],
"flags": ["youku","qq","iqiyi","qiyi","letv","sohu","tudou","pptv","mgtv","wasu","bilibili","duoduozy","renrenmi"],

//jar+壁纸

"spider":"https://gitlab.com/gwcctv/mao/-/raw/main/bz905.jar",

"wallpaper":"https://tool.weetai.cn/api",

//电视直播

"lives": [{"group": "redirect","channels": [{"name": "redirect","urls": ["proxy://do=live&type=txt&ext=aHR0cHM6Ly93ZHMuZWNzeHMuY29tLzIyNzUxMy50eHQ="]}]}],

//解码模式

"ijk":[{"group":"软解码","options":[{"category":4,"name":"opensles","value":"0"},{"category":1,"name":"fflags","value":"fastseek"},{"category":4,"name":"framedrop","value":"1"},
{"category":4,"name":"enable-accurate-seek","value":"0"},{"category":4,"name":"start-on-prepared","value":"1"},{"category":1,"name":"http-detect-range-support","value":"0"},
{"category":4,"name":"mediacodec-handle-resolution-change","value":"0"},{"category":2,"name":"skip_loop_filter","value":"48"},{"category":4,"name":"reconnect","value":"1"},
{"category":4,"name":"overlay-format","value":"842225234"},{"category":4,"name":"mediacodec","value":"0"},{"category":4,"name":"mediacodec-auto-rotate","value":"0"},
{"category":4,"name":"soundtouch","value":"1"},{"category":4,"name":"mediacodec-hevc","value":"0"},{"category":1,"name":"dns_cache_timeout","value":"600000000"}]},
{"group":"硬解码","options":[{"category":4,"name":"opensles","value":"0"},{"category":1,"name":"fflags","value":"fastseek"},{"category":4,"name":"framedrop","value":"1"},
{"category":4,"name":"enable-accurate-seek","value":"0"},{"category":4,"name":"start-on-prepared","value":"1"},{"category":1,"name":"http-detect-range-support","value":"0"},
{"category":4,"name":"mediacodec-handle-resolution-change","value":"1"},{"category":2,"name":"skip_loop_filter","value":"48"},{"category":4,"name":"reconnect","value":"1"},
{"category":4,"name":"overlay-format","value":"842225234"},{"category":4,"name":"mediacodec","value":"1"},{"category":4,"name":"mediacodec-auto-rotate","value":"1"},
{"category":4,"name":"soundtouch","value":"1"},{"category":4,"name":"mediacodec-hevc","value":"1"},{"category":1,"name":"dns_cache_timeout","value":"600000000"}]}],

//广告过滤

"ads":["mimg.0c1q0l.cn","www.googletagmanager.com","www.google-analytics.com","mc.usihnbcq.cn","mg.g1mm3d.cn","mscs.svaeuzh.cn","cnzz.hhttm.top","tp.vinuxhome.com",
"cnzz.mmstat.com","www.baihuillq.com","s23.cnzz.com","z3.cnzz.com","c.cnzz.com","stj.v1vo.top","z12.cnzz.com","img.mosflower.cn","tips.gamevvip.com","ehwe.yhdtns.com",
"xdn.cqqc3.com","www.jixunkyy.cn","sp.chemacid.cn","hm.baidu.com","s9.cnzz.com","z6.cnzz.com","um.cavuc.com","mav.mavuz.com","wofwk.aoidf3.com","z5.cnzz.com",
"xc.hubeijieshikj.cn","tj.tianwenhu.com","xg.gars57.cn","k.jinxiuzhilv.com","cdn.bootcss.com","ppl.xunzhuo123.com","xomk.jiangjunmh.top","img.xunzhuo123.com","z1.cnzz.com",
"s13.cnzz.com","xg.huataisangao.cn","z7.cnzz.com","xg.huataisangao.cn","z2.cnzz.com","s96.cnzz.com","q11.cnzz.com","thy.dacedsfa.cn","xg.whsbpw.cn","s19.cnzz.com",
"z8.cnzz.com","s4.cnzz.com","f5w.as12df.top","ae01.alicdn.com","www.92424.cn","k.wudejia.com","vivovip.mmszxc.top","qiu.xixiqiu.com","cdnjs.hnfenxun.com","cms.qdwght.com"]}
